[0.374s] Invoking command in '/home/antronyx/autorace_ws/build/turtlebot3_autorace_detect': PYTHONPATH=/home/antronyx/autorace_ws/install/turtlebot3_autorace_detect/lib/python3.6/site-packages:${PYTHONPATH} /usr/bin/python3 setup.py develop --prefix /home/antronyx/autorace_ws/install/turtlebot3_autorace_detect --uninstall --editable --build-directory /home/antronyx/autorace_ws/build/turtlebot3_autorace_detect/build
[0.939s] Invoked command in '/home/antronyx/autorace_ws/build/turtlebot3_autorace_detect' returned '0': PYTHONPATH=/home/antronyx/autorace_ws/install/turtlebot3_autorace_detect/lib/python3.6/site-packages:${PYTHONPATH} /usr/bin/python3 setup.py develop --prefix /home/antronyx/autorace_ws/install/turtlebot3_autorace_detect --uninstall --editable --build-directory /home/antronyx/autorace_ws/build/turtlebot3_autorace_detect/build
[0.944s] Invoking command in '/home/antronyx/autorace_ws/src/turtlebot3_autorace_detect': PYTHONPATH=/home/antronyx/autorace_ws/install/turtlebot3_autorace_detect/lib/python3.6/site-packages:${PYTHONPATH} /usr/bin/python3 setup.py egg_info --egg-base /home/antronyx/autorace_ws/build/turtlebot3_autorace_detect build --build-base /home/antronyx/autorace_ws/build/turtlebot3_autorace_detect/build install --prefix /home/antronyx/autorace_ws/install/turtlebot3_autorace_detect --record /home/antronyx/autorace_ws/build/turtlebot3_autorace_detect/install.log --single-version-externally-managed
[1.394s] Invoked command in '/home/antronyx/autorace_ws/src/turtlebot3_autorace_detect' returned '0': PYTHONPATH=/home/antronyx/autorace_ws/install/turtlebot3_autorace_detect/lib/python3.6/site-packages:${PYTHONPATH} /usr/bin/python3 setup.py egg_info --egg-base /home/antronyx/autorace_ws/build/turtlebot3_autorace_detect build --build-base /home/antronyx/autorace_ws/build/turtlebot3_autorace_detect/build install --prefix /home/antronyx/autorace_ws/install/turtlebot3_autorace_detect --record /home/antronyx/autorace_ws/build/turtlebot3_autorace_detect/install.log --single-version-externally-managed
