[0.693s] running develop
[1.179s] running egg_info
[1.180s] writing /home/antronyx/autorace_ws/build/turtlebot3_autorace_detect/turtlebot3_autorace_detect.egg-info/PKG-INFO
[1.180s] writing dependency_links to /home/antronyx/autorace_ws/build/turtlebot3_autorace_detect/turtlebot3_autorace_detect.egg-info/dependency_links.txt
[1.181s] writing entry points to /home/antronyx/autorace_ws/build/turtlebot3_autorace_detect/turtlebot3_autorace_detect.egg-info/entry_points.txt
[1.181s] writing requirements to /home/antronyx/autorace_ws/build/turtlebot3_autorace_detect/turtlebot3_autorace_detect.egg-info/requires.txt
[1.181s] writing top-level names to /home/antronyx/autorace_ws/build/turtlebot3_autorace_detect/turtlebot3_autorace_detect.egg-info/top_level.txt
[1.228s] reading manifest file '/home/antronyx/autorace_ws/build/turtlebot3_autorace_detect/turtlebot3_autorace_detect.egg-info/SOURCES.txt'
[1.230s] writing manifest file '/home/antronyx/autorace_ws/build/turtlebot3_autorace_detect/turtlebot3_autorace_detect.egg-info/SOURCES.txt'
[1.230s] running build
[1.231s] running build_py
[1.231s] running install
[1.232s] running install_lib
[1.234s] running install_egg_info
[1.236s] removing '/home/antronyx/autorace_ws/install/turtlebot3_autorace_detect/lib/python3.6/site-packages/turtlebot3_autorace_detect-0.7.0-py3.6.egg-info' (and everything under it)
[1.237s] Copying /home/antronyx/autorace_ws/build/turtlebot3_autorace_detect/turtlebot3_autorace_detect.egg-info to /home/antronyx/autorace_ws/install/turtlebot3_autorace_detect/lib/python3.6/site-packages/turtlebot3_autorace_detect-0.7.0-py3.6.egg-info
[1.239s] running install_scripts
[1.264s] Installing detect script to /home/antronyx/autorace_ws/install/turtlebot3_autorace_detect/lib/turtlebot3_autorace_detect
[1.264s] writing list of installed files to '/home/antronyx/autorace_ws/build/turtlebot3_autorace_detect/install.log'
