[0.786s] running develop
[1.333s] running egg_info
[1.334s] writing /home/antronyx/autorace_ws/build/turtlebot3_autorace_detect/turtlebot3_autorace_detect.egg-info/PKG-INFO
[1.335s] writing dependency_links to /home/antronyx/autorace_ws/build/turtlebot3_autorace_detect/turtlebot3_autorace_detect.egg-info/dependency_links.txt
[1.335s] writing entry points to /home/antronyx/autorace_ws/build/turtlebot3_autorace_detect/turtlebot3_autorace_detect.egg-info/entry_points.txt
[1.336s] writing requirements to /home/antronyx/autorace_ws/build/turtlebot3_autorace_detect/turtlebot3_autorace_detect.egg-info/requires.txt
[1.336s] writing top-level names to /home/antronyx/autorace_ws/build/turtlebot3_autorace_detect/turtlebot3_autorace_detect.egg-info/top_level.txt
[1.384s] reading manifest file '/home/antronyx/autorace_ws/build/turtlebot3_autorace_detect/turtlebot3_autorace_detect.egg-info/SOURCES.txt'
[1.387s] writing manifest file '/home/antronyx/autorace_ws/build/turtlebot3_autorace_detect/turtlebot3_autorace_detect.egg-info/SOURCES.txt'
[1.387s] running build
[1.387s] running build_py
[1.387s] copying turtlebot3_autorace_detect/detect.py -> /home/antronyx/autorace_ws/build/turtlebot3_autorace_detect/build/lib/turtlebot3_autorace_detect
[1.387s] running install
[1.388s] running install_lib
[1.389s] copying /home/antronyx/autorace_ws/build/turtlebot3_autorace_detect/build/lib/turtlebot3_autorace_detect/detect.py -> /home/antronyx/autorace_ws/install/turtlebot3_autorace_detect/lib/python3.6/site-packages/turtlebot3_autorace_detect
[1.390s] byte-compiling /home/antronyx/autorace_ws/install/turtlebot3_autorace_detect/lib/python3.6/site-packages/turtlebot3_autorace_detect/detect.py to detect.cpython-36.pyc
[1.394s] running install_egg_info
[1.398s] removing '/home/antronyx/autorace_ws/install/turtlebot3_autorace_detect/lib/python3.6/site-packages/turtlebot3_autorace_detect-0.7.0-py3.6.egg-info' (and everything under it)
[1.398s] Copying /home/antronyx/autorace_ws/build/turtlebot3_autorace_detect/turtlebot3_autorace_detect.egg-info to /home/antronyx/autorace_ws/install/turtlebot3_autorace_detect/lib/python3.6/site-packages/turtlebot3_autorace_detect-0.7.0-py3.6.egg-info
[1.400s] running install_scripts
[1.427s] Installing detect script to /home/antronyx/autorace_ws/install/turtlebot3_autorace_detect/lib/turtlebot3_autorace_detect
[1.428s] writing list of installed files to '/home/antronyx/autorace_ws/build/turtlebot3_autorace_detect/install.log'
