[1.104s] running develop
[1.832s] running egg_info
[1.834s] writing /home/antronyx/autorace_ws/build/turtlebot3_autorace_detect/turtlebot3_autorace_detect.egg-info/PKG-INFO
[1.835s] writing dependency_links to /home/antronyx/autorace_ws/build/turtlebot3_autorace_detect/turtlebot3_autorace_detect.egg-info/dependency_links.txt
[1.835s] writing entry points to /home/antronyx/autorace_ws/build/turtlebot3_autorace_detect/turtlebot3_autorace_detect.egg-info/entry_points.txt
[1.835s] writing requirements to /home/antronyx/autorace_ws/build/turtlebot3_autorace_detect/turtlebot3_autorace_detect.egg-info/requires.txt
[1.836s] writing top-level names to /home/antronyx/autorace_ws/build/turtlebot3_autorace_detect/turtlebot3_autorace_detect.egg-info/top_level.txt
[1.905s] reading manifest file '/home/antronyx/autorace_ws/build/turtlebot3_autorace_detect/turtlebot3_autorace_detect.egg-info/SOURCES.txt'
[1.908s] writing manifest file '/home/antronyx/autorace_ws/build/turtlebot3_autorace_detect/turtlebot3_autorace_detect.egg-info/SOURCES.txt'
[1.909s] running build
[1.909s] running build_py
[1.909s] copying turtlebot3_autorace_detect/detect.py -> /home/antronyx/autorace_ws/build/turtlebot3_autorace_detect/build/lib/turtlebot3_autorace_detect
[1.910s] running install
[1.911s] running install_lib
[1.912s] copying /home/antronyx/autorace_ws/build/turtlebot3_autorace_detect/build/lib/turtlebot3_autorace_detect/detect.py -> /home/antronyx/autorace_ws/install/turtlebot3_autorace_detect/lib/python3.6/site-packages/turtlebot3_autorace_detect
[1.913s] byte-compiling /home/antronyx/autorace_ws/install/turtlebot3_autorace_detect/lib/python3.6/site-packages/turtlebot3_autorace_detect/detect.py to detect.cpython-36.pyc
[1.920s] running install_egg_info
[1.925s] removing '/home/antronyx/autorace_ws/install/turtlebot3_autorace_detect/lib/python3.6/site-packages/turtlebot3_autorace_detect-39.0.1-py3.6.egg-info' (and everything under it)
[1.926s] Copying /home/antronyx/autorace_ws/build/turtlebot3_autorace_detect/turtlebot3_autorace_detect.egg-info to /home/antronyx/autorace_ws/install/turtlebot3_autorace_detect/lib/python3.6/site-packages/turtlebot3_autorace_detect-39.0.1-py3.6.egg-info
[1.927s] running install_scripts
[1.963s] Installing detect script to /home/antronyx/autorace_ws/install/turtlebot3_autorace_detect/lib/turtlebot3_autorace_detect
[1.964s] writing list of installed files to '/home/antronyx/autorace_ws/build/turtlebot3_autorace_detect/install.log'
