[0.000000] (-) TimerEvent: {}
[0.000242] (turtlebot3_autorace_detect) JobQueued: {'identifier': 'turtlebot3_autorace_detect', 'dependencies': OrderedDict()}
[0.001529] (turtlebot3_autorace_detect) JobStarted: {'identifier': 'turtlebot3_autorace_detect'}
[0.098655] (-) TimerEvent: {}
[0.199263] (-) TimerEvent: {}
[0.299632] (-) TimerEvent: {}
[0.337053] (turtlebot3_autorace_detect) Command: {'cmd': ['/usr/bin/python3', 'setup.py', 'develop', '--prefix', '/home/antronyx/autorace_ws/install/turtlebot3_autorace_detect', '--uninstall', '--editable', '--build-directory', '/home/antronyx/autorace_ws/build/turtlebot3_autorace_detect/build'], 'cwd': '/home/antronyx/autorace_ws/build/turtlebot3_autorace_detect', 'env': {'GJS_DEBUG_TOPICS': 'JS ERROR;JS LOG', 'LESSOPEN': '| /usr/bin/lesspipe %s', 'USER': 'antronyx', 'TEXTDOMAIN': 'im-config', 'XDG_SEAT': 'seat0', 'SSH_AGENT_PID': '1557', 'XDG_SESSION_TYPE': 'x11', 'LD_LIBRARY_PATH': '/home/antronyx/turtlebot3_ws/install/turtlebot3_msgs/lib:/home/antronyx/turtlebot3_ws/install/dynamixel_sdk/lib:/usr/lib/x86_64-linux-gnu/gazebo-9/plugins:/opt/ros/dashing/opt/yaml_cpp_vendor/lib:/opt/ros/dashing/opt/rviz_ogre_vendor/lib:/opt/ros/dashing/lib', 'SHLVL': '1', 'OLDPWD': '/home/antronyx/Scrivania', 'QT4_IM_MODULE': 'xim', 'HOME': '/home/antronyx', 'DESKTOP_SESSION': 'ubuntu', 'GNOME_SHELL_SESSION_MODE': 'ubuntu', 'GTK_MODULES': 'gail:atk-bridge', 'ROS_PYTHON_VERSION': '3', 'DBUS_SESSION_BUS_ADDRESS': 'unix:path=/run/user/1000/bus', 'COLORTERM': 'truecolor', 'COLCON_PREFIX_PATH': '/home/antronyx/autorace_ws/install:/home/antronyx/turtlebot3_ws/install', 'IM_CONFIG_PHASE': '2', 'ROS_DISTRO': 'dashing', 'LOGNAME': 'antronyx', 'GTK_IM_MODULE': 'ibus', '_': '/usr/bin/colcon', 'ROS_VERSION': '2', 'GAZEBO_MODEL_PATH': ':/home/antronyx/turtlebot3_ws/src/turtlebot3/turtlebot3_simulations/turtlebot3_gazebo/models', 'USERNAME': 'antronyx', 'XDG_SESSION_ID': '2', 'TERM': 'xterm-256color', 'GNOME_DESKTOP_SESSION_ID': 'this-is-deprecated', 'WINDOWPATH': '2', 'PATH': '/opt/ros/dashing/bin:/home/antronyx/.local/bin:/usr/local/sbin:/usr/local/bin:/usr/sbin:/usr/bin:/sbin:/bin:/usr/games:/usr/local/games:/snap/bin', 'SESSION_MANAGER': 'local/jarvis:@/tmp/.ICE-unix/1462,unix/jarvis:/tmp/.ICE-unix/1462', 'XDG_MENU_PREFIX': 'gnome-', 'GNOME_TERMINAL_SCREEN': '/org/gnome/Terminal/screen/8d4998de_295b_4122_b579_62c3a2566077', 'XDG_RUNTIME_DIR': '/run/user/1000', 'DISPLAY': ':0', 'LANG': 'it_IT.UTF-8', 'XDG_CURRENT_DESKTOP': 'ubuntu:GNOME', 'LS_COLORS': 'rs=0:di=01;34:ln=01;36:mh=00:pi=40;33:so=01;35:do=01;35:bd=40;33;01:cd=40;33;01:or=40;31;01:mi=00:su=37;41:sg=30;43:ca=30;41:tw=30;42:ow=34;42:st=37;44:ex=01;32:*.tar=01;31:*.tgz=01;31:*.arc=01;31:*.arj=01;31:*.taz=01;31:*.lha=01;31:*.lz4=01;31:*.lzh=01;31:*.lzma=01;31:*.tlz=01;31:*.txz=01;31:*.tzo=01;31:*.t7z=01;31:*.zip=01;31:*.z=01;31:*.Z=01;31:*.dz=01;31:*.gz=01;31:*.lrz=01;31:*.lz=01;31:*.lzo=01;31:*.xz=01;31:*.zst=01;31:*.tzst=01;31:*.bz2=01;31:*.bz=01;31:*.tbz=01;31:*.tbz2=01;31:*.tz=01;31:*.deb=01;31:*.rpm=01;31:*.jar=01;31:*.war=01;31:*.ear=01;31:*.sar=01;31:*.rar=01;31:*.alz=01;31:*.ace=01;31:*.zoo=01;31:*.cpio=01;31:*.7z=01;31:*.rz=01;31:*.cab=01;31:*.wim=01;31:*.swm=01;31:*.dwm=01;31:*.esd=01;31:*.jpg=01;35:*.jpeg=01;35:*.mjpg=01;35:*.mjpeg=01;35:*.gif=01;35:*.bmp=01;35:*.pbm=01;35:*.pgm=01;35:*.ppm=01;35:*.tga=01;35:*.xbm=01;35:*.xpm=01;35:*.tif=01;35:*.tiff=01;35:*.png=01;35:*.svg=01;35:*.svgz=01;35:*.mng=01;35:*.pcx=01;35:*.mov=01;35:*.mpg=01;35:*.mpeg=01;35:*.m2v=01;35:*.mkv=01;35:*.webm=01;35:*.ogm=01;35:*.mp4=01;35:*.m4v=01;35:*.mp4v=01;35:*.vob=01;35:*.qt=01;35:*.nuv=01;35:*.wmv=01;35:*.asf=01;35:*.rm=01;35:*.rmvb=01;35:*.flc=01;35:*.avi=01;35:*.fli=01;35:*.flv=01;35:*.gl=01;35:*.dl=01;35:*.xcf=01;35:*.xwd=01;35:*.yuv=01;35:*.cgm=01;35:*.emf=01;35:*.ogv=01;35:*.ogx=01;35:*.aac=00;36:*.au=00;36:*.flac=00;36:*.m4a=00;36:*.mid=00;36:*.midi=00;36:*.mka=00;36:*.mp3=00;36:*.mpc=00;36:*.ogg=00;36:*.ra=00;36:*.wav=00;36:*.oga=00;36:*.opus=00;36:*.spx=00;36:*.xspf=00;36:', 'XDG_SESSION_DESKTOP': 'ubuntu', 'XMODIFIERS': '@im=ibus', 'GNOME_TERMINAL_SERVICE': ':1.115', 'XAUTHORITY': '/run/user/1000/gdm/Xauthority', 'AMENT_PREFIX_PATH': '/home/antronyx/autorace_ws/install/turtlebot3_autorace_detect:/home/antronyx/turtlebot3_ws/install/turtlebot3_simulations:/home/antronyx/turtlebot3_ws/install/turtlebot3_gazebo:/home/antronyx/turtlebot3_ws/install/turtlebot3:/home/antronyx/turtlebot3_ws/install/turtlebot3_teleop:/home/antronyx/turtlebot3_ws/install/turtlebot3_bringup:/home/antronyx/turtlebot3_ws/install/turtlebot3_node:/home/antronyx/turtlebot3_ws/install/turtlebot3_navigation2:/home/antronyx/turtlebot3_ws/install/turtlebot3_fake_node:/home/antronyx/turtlebot3_ws/install/turtlebot3_example:/home/antronyx/turtlebot3_ws/install/turtlebot3_msgs:/home/antronyx/turtlebot3_ws/install/turtlebot3_description:/home/antronyx/turtlebot3_ws/install/turtlebot3_cartographer:/home/antronyx/turtlebot3_ws/install/hls_lfcd_lds_driver:/home/antronyx/turtlebot3_ws/install/dynamixel_sdk:/opt/ros/dashing', 'SSH_AUTH_SOCK': '/run/user/1000/keyring/ssh', 'ROS_DOMAIN_ID': '30', 'SHELL': '/bin/bash', 'QT_ACCESSIBILITY': '1', 'GDMSESSION': 'ubuntu', 'LESSCLOSE': '/usr/bin/lesspipe %s %s', 'TEXTDOMAINDIR': '/usr/share/locale/', 'GJS_DEBUG_OUTPUT': 'stderr', 'GPG_AGENT_INFO': '/run/user/1000/gnupg/S.gpg-agent:0:1', 'XDG_VTNR': '2', 'QT_IM_MODULE': 'ibus', 'TURTLEBOT3_MODEL': 'waffle_pi', 'PWD': '/home/antronyx/autorace_ws/build/turtlebot3_autorace_detect', 'CLUTTER_IM_MODULE': 'xim', 'XDG_DATA_DIRS': '/usr/share/ubuntu:/usr/local/share/:/usr/share/:/var/lib/snapd/desktop', 'XDG_CONFIG_DIRS': '/etc/xdg/xdg-ubuntu:/etc/xdg', 'PYTHONPATH': '/home/antronyx/autorace_ws/install/turtlebot3_autorace_detect/lib/python3.6/site-packages:/home/antronyx/autorace_ws/install/turtlebot3_autorace_detect/lib/python3.6/site-packages:/home/antronyx/turtlebot3_ws/install/turtlebot3_teleop/lib/python3.6/site-packages:/home/antronyx/turtlebot3_ws/install/turtlebot3_example/lib/python3.6/site-packages:/home/antronyx/turtlebot3_ws/install/turtlebot3_msgs/lib/python3.6/site-packages:/opt/ros/dashing/lib/python3.6/site-packages', 'VTE_VERSION': '5202', 'CMAKE_PREFIX_PATH': '/home/antronyx/turtlebot3_ws/install/turtlebot3_simulations:/home/antronyx/turtlebot3_ws/install/turtlebot3_gazebo:/home/antronyx/turtlebot3_ws/install/turtlebot3:/home/antronyx/turtlebot3_ws/install/turtlebot3_bringup:/home/antronyx/turtlebot3_ws/install/turtlebot3_node:/home/antronyx/turtlebot3_ws/install/turtlebot3_navigation2:/home/antronyx/turtlebot3_ws/install/turtlebot3_fake_node:/home/antronyx/turtlebot3_ws/install/turtlebot3_msgs:/home/antronyx/turtlebot3_ws/install/turtlebot3_description:/home/antronyx/turtlebot3_ws/install/turtlebot3_cartographer:/home/antronyx/turtlebot3_ws/install/hls_lfcd_lds_driver:/home/antronyx/turtlebot3_ws/install/dynamixel_sdk'}, 'shell': False}
[0.399821] (-) TimerEvent: {}
[0.500286] (-) TimerEvent: {}
[0.600646] (-) TimerEvent: {}
[0.645220] (turtlebot3_autorace_detect) StdoutLine: {'line': b'running develop\n'}
[0.700780] (-) TimerEvent: {}
[0.801190] (-) TimerEvent: {}
[0.822797] (turtlebot3_autorace_detect) CommandEnded: {'returncode': 0}
[0.824522] (turtlebot3_autorace_detect) Command: {'cmd': ['/usr/bin/python3', 'setup.py', 'egg_info', '--egg-base', '/home/antronyx/autorace_ws/build/turtlebot3_autorace_detect', 'build', '--build-base', '/home/antronyx/autorace_ws/build/turtlebot3_autorace_detect/build', 'install', '--prefix', '/home/antronyx/autorace_ws/install/turtlebot3_autorace_detect', '--record', '/home/antronyx/autorace_ws/build/turtlebot3_autorace_detect/install.log', '--single-version-externally-managed'], 'cwd': '/home/antronyx/autorace_ws/src/turtlebot3_autorace_detect', 'env': {'GJS_DEBUG_TOPICS': 'JS ERROR;JS LOG', 'LESSOPEN': '| /usr/bin/lesspipe %s', 'USER': 'antronyx', 'TEXTDOMAIN': 'im-config', 'XDG_SEAT': 'seat0', 'SSH_AGENT_PID': '1557', 'XDG_SESSION_TYPE': 'x11', 'LD_LIBRARY_PATH': '/home/antronyx/turtlebot3_ws/install/turtlebot3_msgs/lib:/home/antronyx/turtlebot3_ws/install/dynamixel_sdk/lib:/usr/lib/x86_64-linux-gnu/gazebo-9/plugins:/opt/ros/dashing/opt/yaml_cpp_vendor/lib:/opt/ros/dashing/opt/rviz_ogre_vendor/lib:/opt/ros/dashing/lib', 'SHLVL': '1', 'OLDPWD': '/home/antronyx/Scrivania', 'QT4_IM_MODULE': 'xim', 'HOME': '/home/antronyx', 'DESKTOP_SESSION': 'ubuntu', 'GNOME_SHELL_SESSION_MODE': 'ubuntu', 'GTK_MODULES': 'gail:atk-bridge', 'ROS_PYTHON_VERSION': '3', 'DBUS_SESSION_BUS_ADDRESS': 'unix:path=/run/user/1000/bus', 'COLORTERM': 'truecolor', 'COLCON_PREFIX_PATH': '/home/antronyx/autorace_ws/install:/home/antronyx/turtlebot3_ws/install', 'IM_CONFIG_PHASE': '2', 'ROS_DISTRO': 'dashing', 'LOGNAME': 'antronyx', 'GTK_IM_MODULE': 'ibus', '_': '/usr/bin/colcon', 'ROS_VERSION': '2', 'GAZEBO_MODEL_PATH': ':/home/antronyx/turtlebot3_ws/src/turtlebot3/turtlebot3_simulations/turtlebot3_gazebo/models', 'USERNAME': 'antronyx', 'XDG_SESSION_ID': '2', 'TERM': 'xterm-256color', 'GNOME_DESKTOP_SESSION_ID': 'this-is-deprecated', 'WINDOWPATH': '2', 'PATH': '/opt/ros/dashing/bin:/home/antronyx/.local/bin:/usr/local/sbin:/usr/local/bin:/usr/sbin:/usr/bin:/sbin:/bin:/usr/games:/usr/local/games:/snap/bin', 'SESSION_MANAGER': 'local/jarvis:@/tmp/.ICE-unix/1462,unix/jarvis:/tmp/.ICE-unix/1462', 'XDG_MENU_PREFIX': 'gnome-', 'GNOME_TERMINAL_SCREEN': '/org/gnome/Terminal/screen/8d4998de_295b_4122_b579_62c3a2566077', 'XDG_RUNTIME_DIR': '/run/user/1000', 'DISPLAY': ':0', 'LANG': 'it_IT.UTF-8', 'XDG_CURRENT_DESKTOP': 'ubuntu:GNOME', 'LS_COLORS': 'rs=0:di=01;34:ln=01;36:mh=00:pi=40;33:so=01;35:do=01;35:bd=40;33;01:cd=40;33;01:or=40;31;01:mi=00:su=37;41:sg=30;43:ca=30;41:tw=30;42:ow=34;42:st=37;44:ex=01;32:*.tar=01;31:*.tgz=01;31:*.arc=01;31:*.arj=01;31:*.taz=01;31:*.lha=01;31:*.lz4=01;31:*.lzh=01;31:*.lzma=01;31:*.tlz=01;31:*.txz=01;31:*.tzo=01;31:*.t7z=01;31:*.zip=01;31:*.z=01;31:*.Z=01;31:*.dz=01;31:*.gz=01;31:*.lrz=01;31:*.lz=01;31:*.lzo=01;31:*.xz=01;31:*.zst=01;31:*.tzst=01;31:*.bz2=01;31:*.bz=01;31:*.tbz=01;31:*.tbz2=01;31:*.tz=01;31:*.deb=01;31:*.rpm=01;31:*.jar=01;31:*.war=01;31:*.ear=01;31:*.sar=01;31:*.rar=01;31:*.alz=01;31:*.ace=01;31:*.zoo=01;31:*.cpio=01;31:*.7z=01;31:*.rz=01;31:*.cab=01;31:*.wim=01;31:*.swm=01;31:*.dwm=01;31:*.esd=01;31:*.jpg=01;35:*.jpeg=01;35:*.mjpg=01;35:*.mjpeg=01;35:*.gif=01;35:*.bmp=01;35:*.pbm=01;35:*.pgm=01;35:*.ppm=01;35:*.tga=01;35:*.xbm=01;35:*.xpm=01;35:*.tif=01;35:*.tiff=01;35:*.png=01;35:*.svg=01;35:*.svgz=01;35:*.mng=01;35:*.pcx=01;35:*.mov=01;35:*.mpg=01;35:*.mpeg=01;35:*.m2v=01;35:*.mkv=01;35:*.webm=01;35:*.ogm=01;35:*.mp4=01;35:*.m4v=01;35:*.mp4v=01;35:*.vob=01;35:*.qt=01;35:*.nuv=01;35:*.wmv=01;35:*.asf=01;35:*.rm=01;35:*.rmvb=01;35:*.flc=01;35:*.avi=01;35:*.fli=01;35:*.flv=01;35:*.gl=01;35:*.dl=01;35:*.xcf=01;35:*.xwd=01;35:*.yuv=01;35:*.cgm=01;35:*.emf=01;35:*.ogv=01;35:*.ogx=01;35:*.aac=00;36:*.au=00;36:*.flac=00;36:*.m4a=00;36:*.mid=00;36:*.midi=00;36:*.mka=00;36:*.mp3=00;36:*.mpc=00;36:*.ogg=00;36:*.ra=00;36:*.wav=00;36:*.oga=00;36:*.opus=00;36:*.spx=00;36:*.xspf=00;36:', 'XDG_SESSION_DESKTOP': 'ubuntu', 'XMODIFIERS': '@im=ibus', 'GNOME_TERMINAL_SERVICE': ':1.115', 'XAUTHORITY': '/run/user/1000/gdm/Xauthority', 'AMENT_PREFIX_PATH': '/home/antronyx/autorace_ws/install/turtlebot3_autorace_detect:/home/antronyx/turtlebot3_ws/install/turtlebot3_simulations:/home/antronyx/turtlebot3_ws/install/turtlebot3_gazebo:/home/antronyx/turtlebot3_ws/install/turtlebot3:/home/antronyx/turtlebot3_ws/install/turtlebot3_teleop:/home/antronyx/turtlebot3_ws/install/turtlebot3_bringup:/home/antronyx/turtlebot3_ws/install/turtlebot3_node:/home/antronyx/turtlebot3_ws/install/turtlebot3_navigation2:/home/antronyx/turtlebot3_ws/install/turtlebot3_fake_node:/home/antronyx/turtlebot3_ws/install/turtlebot3_example:/home/antronyx/turtlebot3_ws/install/turtlebot3_msgs:/home/antronyx/turtlebot3_ws/install/turtlebot3_description:/home/antronyx/turtlebot3_ws/install/turtlebot3_cartographer:/home/antronyx/turtlebot3_ws/install/hls_lfcd_lds_driver:/home/antronyx/turtlebot3_ws/install/dynamixel_sdk:/opt/ros/dashing', 'SSH_AUTH_SOCK': '/run/user/1000/keyring/ssh', 'ROS_DOMAIN_ID': '30', 'SHELL': '/bin/bash', 'QT_ACCESSIBILITY': '1', 'GDMSESSION': 'ubuntu', 'LESSCLOSE': '/usr/bin/lesspipe %s %s', 'TEXTDOMAINDIR': '/usr/share/locale/', 'GJS_DEBUG_OUTPUT': 'stderr', 'GPG_AGENT_INFO': '/run/user/1000/gnupg/S.gpg-agent:0:1', 'XDG_VTNR': '2', 'QT_IM_MODULE': 'ibus', 'TURTLEBOT3_MODEL': 'waffle_pi', 'PWD': '/home/antronyx/autorace_ws/build/turtlebot3_autorace_detect', 'CLUTTER_IM_MODULE': 'xim', 'XDG_DATA_DIRS': '/usr/share/ubuntu:/usr/local/share/:/usr/share/:/var/lib/snapd/desktop', 'XDG_CONFIG_DIRS': '/etc/xdg/xdg-ubuntu:/etc/xdg', 'PYTHONPATH': '/home/antronyx/autorace_ws/install/turtlebot3_autorace_detect/lib/python3.6/site-packages:/home/antronyx/autorace_ws/install/turtlebot3_autorace_detect/lib/python3.6/site-packages:/home/antronyx/turtlebot3_ws/install/turtlebot3_teleop/lib/python3.6/site-packages:/home/antronyx/turtlebot3_ws/install/turtlebot3_example/lib/python3.6/site-packages:/home/antronyx/turtlebot3_ws/install/turtlebot3_msgs/lib/python3.6/site-packages:/opt/ros/dashing/lib/python3.6/site-packages', 'VTE_VERSION': '5202', 'CMAKE_PREFIX_PATH': '/home/antronyx/turtlebot3_ws/install/turtlebot3_simulations:/home/antronyx/turtlebot3_ws/install/turtlebot3_gazebo:/home/antronyx/turtlebot3_ws/install/turtlebot3:/home/antronyx/turtlebot3_ws/install/turtlebot3_bringup:/home/antronyx/turtlebot3_ws/install/turtlebot3_node:/home/antronyx/turtlebot3_ws/install/turtlebot3_navigation2:/home/antronyx/turtlebot3_ws/install/turtlebot3_fake_node:/home/antronyx/turtlebot3_ws/install/turtlebot3_msgs:/home/antronyx/turtlebot3_ws/install/turtlebot3_description:/home/antronyx/turtlebot3_ws/install/turtlebot3_cartographer:/home/antronyx/turtlebot3_ws/install/hls_lfcd_lds_driver:/home/antronyx/turtlebot3_ws/install/dynamixel_sdk'}, 'shell': False}
[0.901334] (-) TimerEvent: {}
[1.001817] (-) TimerEvent: {}
[1.102222] (-) TimerEvent: {}
[1.104427] (turtlebot3_autorace_detect) StdoutLine: {'line': b'running egg_info\n'}
[1.105447] (turtlebot3_autorace_detect) StdoutLine: {'line': b'writing /home/antronyx/autorace_ws/build/turtlebot3_autorace_detect/turtlebot3_autorace_detect.egg-info/PKG-INFO\n'}
[1.106119] (turtlebot3_autorace_detect) StdoutLine: {'line': b'writing dependency_links to /home/antronyx/autorace_ws/build/turtlebot3_autorace_detect/turtlebot3_autorace_detect.egg-info/dependency_links.txt\n'}
[1.106415] (turtlebot3_autorace_detect) StdoutLine: {'line': b'writing entry points to /home/antronyx/autorace_ws/build/turtlebot3_autorace_detect/turtlebot3_autorace_detect.egg-info/entry_points.txt\n'}
[1.106717] (turtlebot3_autorace_detect) StdoutLine: {'line': b'writing requirements to /home/antronyx/autorace_ws/build/turtlebot3_autorace_detect/turtlebot3_autorace_detect.egg-info/requires.txt\n'}
[1.106876] (turtlebot3_autorace_detect) StdoutLine: {'line': b'writing top-level names to /home/antronyx/autorace_ws/build/turtlebot3_autorace_detect/turtlebot3_autorace_detect.egg-info/top_level.txt\n'}
[1.148981] (turtlebot3_autorace_detect) StdoutLine: {'line': b"reading manifest file '/home/antronyx/autorace_ws/build/turtlebot3_autorace_detect/turtlebot3_autorace_detect.egg-info/SOURCES.txt'\n"}
[1.150593] (turtlebot3_autorace_detect) StdoutLine: {'line': b"writing manifest file '/home/antronyx/autorace_ws/build/turtlebot3_autorace_detect/turtlebot3_autorace_detect.egg-info/SOURCES.txt'\n"}
[1.150994] (turtlebot3_autorace_detect) StdoutLine: {'line': b'running build\n'}
[1.151243] (turtlebot3_autorace_detect) StdoutLine: {'line': b'running build_py\n'}
[1.151385] (turtlebot3_autorace_detect) StdoutLine: {'line': b'copying turtlebot3_autorace_detect/detect.py -> /home/antronyx/autorace_ws/build/turtlebot3_autorace_detect/build/lib/turtlebot3_autorace_detect\n'}
[1.151620] (turtlebot3_autorace_detect) StdoutLine: {'line': b'running install\n'}
[1.152214] (turtlebot3_autorace_detect) StdoutLine: {'line': b'running install_lib\n'}
[1.153394] (turtlebot3_autorace_detect) StdoutLine: {'line': b'copying /home/antronyx/autorace_ws/build/turtlebot3_autorace_detect/build/lib/turtlebot3_autorace_detect/detect.py -> /home/antronyx/autorace_ws/install/turtlebot3_autorace_detect/lib/python3.6/site-packages/turtlebot3_autorace_detect\n'}
[1.154103] (turtlebot3_autorace_detect) StdoutLine: {'line': b'byte-compiling /home/antronyx/autorace_ws/install/turtlebot3_autorace_detect/lib/python3.6/site-packages/turtlebot3_autorace_detect/detect.py to detect.cpython-36.pyc\n'}
[1.158243] (turtlebot3_autorace_detect) StdoutLine: {'line': b'running install_egg_info\n'}
[1.160876] (turtlebot3_autorace_detect) StdoutLine: {'line': b"removing '/home/antronyx/autorace_ws/install/turtlebot3_autorace_detect/lib/python3.6/site-packages/turtlebot3_autorace_detect-39.0.1-py3.6.egg-info' (and everything under it)\n"}
[1.161314] (turtlebot3_autorace_detect) StdoutLine: {'line': b'Copying /home/antronyx/autorace_ws/build/turtlebot3_autorace_detect/turtlebot3_autorace_detect.egg-info to /home/antronyx/autorace_ws/install/turtlebot3_autorace_detect/lib/python3.6/site-packages/turtlebot3_autorace_detect-39.0.1-py3.6.egg-info\n'}
[1.162454] (turtlebot3_autorace_detect) StdoutLine: {'line': b'running install_scripts\n'}
[1.186852] (turtlebot3_autorace_detect) StdoutLine: {'line': b'Installing detect script to /home/antronyx/autorace_ws/install/turtlebot3_autorace_detect/lib/turtlebot3_autorace_detect\n'}
[1.187453] (turtlebot3_autorace_detect) StdoutLine: {'line': b"writing list of installed files to '/home/antronyx/autorace_ws/build/turtlebot3_autorace_detect/install.log'\n"}
[1.202366] (-) TimerEvent: {}
[1.219809] (turtlebot3_autorace_detect) CommandEnded: {'returncode': 0}
[1.241342] (turtlebot3_autorace_detect) JobEnded: {'identifier': 'turtlebot3_autorace_detect', 'rc': 0}
[1.243197] (-) EventReactorShutdown: {}
