[0.595s] Invoking command in '/home/antronyx/autorace_ws/build/turtlebot3_autorace_detect': PYTHONPATH=/home/antronyx/autorace_ws/install/turtlebot3_autorace_detect/lib/python3.6/site-packages:${PYTHONPATH} /usr/bin/python3 setup.py develop --prefix /home/antronyx/autorace_ws/install/turtlebot3_autorace_detect --uninstall --editable --build-directory /home/antronyx/autorace_ws/build/turtlebot3_autorace_detect/build
[1.167s] running develop
[1.496s] Invoked command in '/home/antronyx/autorace_ws/build/turtlebot3_autorace_detect' returned '0': PYTHONPATH=/home/antronyx/autorace_ws/install/turtlebot3_autorace_detect/lib/python3.6/site-packages:${PYTHONPATH} /usr/bin/python3 setup.py develop --prefix /home/antronyx/autorace_ws/install/turtlebot3_autorace_detect --uninstall --editable --build-directory /home/antronyx/autorace_ws/build/turtlebot3_autorace_detect/build
[1.501s] Invoking command in '/home/antronyx/autorace_ws/src/turtlebot3_autorace_detect': PYTHONPATH=/home/antronyx/autorace_ws/install/turtlebot3_autorace_detect/lib/python3.6/site-packages:${PYTHONPATH} /usr/bin/python3 setup.py egg_info --egg-base /home/antronyx/autorace_ws/build/turtlebot3_autorace_detect build --build-base /home/antronyx/autorace_ws/build/turtlebot3_autorace_detect/build install --prefix /home/antronyx/autorace_ws/install/turtlebot3_autorace_detect --record /home/antronyx/autorace_ws/build/turtlebot3_autorace_detect/install.log --single-version-externally-managed
[2.020s] running egg_info
[2.022s] writing /home/antronyx/autorace_ws/build/turtlebot3_autorace_detect/turtlebot3_autorace_detect.egg-info/PKG-INFO
[2.023s] writing dependency_links to /home/antronyx/autorace_ws/build/turtlebot3_autorace_detect/turtlebot3_autorace_detect.egg-info/dependency_links.txt
[2.024s] writing entry points to /home/antronyx/autorace_ws/build/turtlebot3_autorace_detect/turtlebot3_autorace_detect.egg-info/entry_points.txt
[2.024s] writing requirements to /home/antronyx/autorace_ws/build/turtlebot3_autorace_detect/turtlebot3_autorace_detect.egg-info/requires.txt
[2.024s] writing top-level names to /home/antronyx/autorace_ws/build/turtlebot3_autorace_detect/turtlebot3_autorace_detect.egg-info/top_level.txt
[2.101s] reading manifest file '/home/antronyx/autorace_ws/build/turtlebot3_autorace_detect/turtlebot3_autorace_detect.egg-info/SOURCES.txt'
[2.103s] writing manifest file '/home/antronyx/autorace_ws/build/turtlebot3_autorace_detect/turtlebot3_autorace_detect.egg-info/SOURCES.txt'
[2.104s] running build
[2.104s] running build_py
[2.105s] copying turtlebot3_autorace_detect/detect.py -> /home/antronyx/autorace_ws/build/turtlebot3_autorace_detect/build/lib/turtlebot3_autorace_detect
[2.105s] running install
[2.106s] running install_lib
[2.108s] copying /home/antronyx/autorace_ws/build/turtlebot3_autorace_detect/build/lib/turtlebot3_autorace_detect/detect.py -> /home/antronyx/autorace_ws/install/turtlebot3_autorace_detect/lib/python3.6/site-packages/turtlebot3_autorace_detect
[2.109s] byte-compiling /home/antronyx/autorace_ws/install/turtlebot3_autorace_detect/lib/python3.6/site-packages/turtlebot3_autorace_detect/detect.py to detect.cpython-36.pyc
[2.115s] running install_egg_info
[2.118s] removing '/home/antronyx/autorace_ws/install/turtlebot3_autorace_detect/lib/python3.6/site-packages/turtlebot3_autorace_detect-39.0.1-py3.6.egg-info' (and everything under it)
[2.119s] Copying /home/antronyx/autorace_ws/build/turtlebot3_autorace_detect/turtlebot3_autorace_detect.egg-info to /home/antronyx/autorace_ws/install/turtlebot3_autorace_detect/lib/python3.6/site-packages/turtlebot3_autorace_detect-39.0.1-py3.6.egg-info
[2.121s] running install_scripts
[2.169s] Installing detect script to /home/antronyx/autorace_ws/install/turtlebot3_autorace_detect/lib/turtlebot3_autorace_detect
[2.170s] writing list of installed files to '/home/antronyx/autorace_ws/build/turtlebot3_autorace_detect/install.log'
[2.222s] Invoked command in '/home/antronyx/autorace_ws/src/turtlebot3_autorace_detect' returned '0': PYTHONPATH=/home/antronyx/autorace_ws/install/turtlebot3_autorace_detect/lib/python3.6/site-packages:${PYTHONPATH} /usr/bin/python3 setup.py egg_info --egg-base /home/antronyx/autorace_ws/build/turtlebot3_autorace_detect build --build-base /home/antronyx/autorace_ws/build/turtlebot3_autorace_detect/build install --prefix /home/antronyx/autorace_ws/install/turtlebot3_autorace_detect --record /home/antronyx/autorace_ws/build/turtlebot3_autorace_detect/install.log --single-version-externally-managed
